Data Analysis Skill Test
…
It is possible to list the most important Brazilian trade partners in terms of corn and sugar for the past 3 years. Consider trade partners importance to be related to both imports and exports. As number of transactions (import plus export shipments) the 5 most important partners are the US, Paraguay, Egypt, Spain and Iran. If we consider different metrics, such as tons and USD, the US lose its importance figuring out of the top 5. In terms of tons and USD, Iran is the most important partner for sugar and corn. Notice also the importance of Asian countries for the top 5 using tons as a measure, Japan, Bangladesh and Vietnam are the top 3, 4 and 5, respectively.

The 5 Most Important Exporter States per Product:

Again, lets restrict our attention to the past 5 years.

exports %>% filter(year(date)>=2015) %>% group_by(product) %>% count(state, sort=TRUE)

## # A tibble: 127 x 3
## # Groups:   product [6]
##    product      state     n
##    <chr>        <chr> <int>
##  1 sugar        SP     6422
##  2 corn         MT     2311
##  3 soybeans     MT     1496
##  4 sugar        MG     1381
##  5 sugar        GO     1343
##  6 soybean_meal MT     1319
##  7 corn         GO     1149
##  8 sugar        PR      958
##  9 soybean_meal MG      889
## 10 corn         PR      822
## # ... with 117 more rows
…
